{"count":807,"next":"https://pokeapi.co/api/v2/pokemon-species?offset=280&limit=20","previous":"https://pokeapi.co/api/v2/pokemon-species?offset=240&limit=20","results":[{"name":"poochyena","url":"https://pokeapi.co/api/v2/pokemon-species/261/"},{"name":"mightyena","url":"https://pokeapi.co/api/v2/pokemon-species/262/"},{"name":"zigzagoon","url":"https://pokeapi.co/api/v2/pokemon-species/263/"},{"name":"linoone","url":"https://pokeapi.co/api/v2/pokemon-species/264/"},{"name":"wurmple","url":"https://pokeapi.co/api/v2/pokemon-species/265/"},{"name":"silcoon","url":"https://pokeapi.co/api/v2/pokemon-species/266/"},{"name":"beautifly","url":"https://pokeapi.co/api/v2/pokemon-species/267/"},{"name":"cascoon","url":"https://pokeapi.co/api/v2/pokemon-species/268/"},{"name":"dustox","url":"https://pokeapi.co/api/v2/pokemon-species/269/"},{"name":"lotad","url":"https://pokeapi.co/api/v2/pokemon-species/270/"},{"name":"lombre","url":"https://pokeapi.co/api/v2/pokemon-species/271/"},{"name":"ludicolo","url":"https://pokeapi.co/api/v2/pokemon-species/272/"},{"name":"seedot","url":"https://pokeapi.co/api/v2/pokemon-species/273/"},{"name":"nuzleaf","url":"https://pokeapi.co/api/v2/pokemon-species/274/"},{"name":"shiftry","url":"https://pokeapi.co/api/v2/pokemon-species/275/"},{"name":"taillow","url":"https://pokeapi.co/api/v2/pokemon-species/276/"},{"name":"swellow","url":"https://pokeapi.co/api/v2/pokemon-species/277/"},{"name":"wingull","url":"https://pokeapi.co/api/v2/pokemon-species/278/"},{"name":"pelipper","url":"https://pokeapi.co/api/v2/pokemon-species/279/"},{"name":"ralts","url":"https://pokeapi.co/api/v2/pokemon-species/280/"}]}