{"count":807,"next":"https://pokeapi.co/api/v2/pokemon-species?offset=100&limit=20","previous":"https://pokeapi.co/api/v2/pokemon-species?offset=60&limit=20","results":[{"name":"magnemite","url":"https://pokeapi.co/api/v2/pokemon-species/81/"},{"name":"magneton","url":"https://pokeapi.co/api/v2/pokemon-species/82/"},{"name":"farfetchd","url":"https://pokeapi.co/api/v2/pokemon-species/83/"},{"name":"doduo","url":"https://pokeapi.co/api/v2/pokemon-species/84/"},{"name":"dodrio","url":"https://pokeapi.co/api/v2/pokemon-species/85/"},{"name":"seel","url":"https://pokeapi.co/api/v2/pokemon-species/86/"},{"name":"dewgong","url":"https://pokeapi.co/api/v2/pokemon-species/87/"},{"name":"grimer","url":"https://pokeapi.co/api/v2/pokemon-species/88/"},{"name":"muk","url":"https://pokeapi.co/api/v2/pokemon-species/89/"},{"name":"shellder","url":"https://pokeapi.co/api/v2/pokemon-species/90/"},{"name":"cloyster","url":"https://pokeapi.co/api/v2/pokemon-species/91/"},{"name":"gastly","url":"https://pokeapi.co/api/v2/pokemon-species/92/"},{"name":"haunter","url":"https://pokeapi.co/api/v2/pokemon-species/93/"},{"name":"gengar","url":"https://pokeapi.co/api/v2/pokemon-species/94/"},{"name":"onix","url":"https://pokeapi.co/api/v2/pokemon-species/95/"},{"name":"drowzee","url":"https://pokeapi.co/api/v2/pokemon-species/96/"},{"name":"hypno","url":"https://pokeapi.co/api/v2/pokemon-species/97/"},{"name":"krabby","url":"https://pokeapi.co/api/v2/pokemon-species/98/"},{"name":"kingler","url":"https://pokeapi.co/api/v2/pokemon-species/99/"},{"name":"voltorb","url":"https://pokeapi.co/api/v2/pokemon-species/100/"}]}