{"count":807,"next":"https://pokeapi.co/api/v2/pokemon-species?offset=660&limit=20","previous":"https://pokeapi.co/api/v2/pokemon-species?offset=620&limit=20","results":[{"name":"tornadus","url":"https://pokeapi.co/api/v2/pokemon-species/641/"},{"name":"thundurus","url":"https://pokeapi.co/api/v2/pokemon-species/642/"},{"name":"reshiram","url":"https://pokeapi.co/api/v2/pokemon-species/643/"},{"name":"zekrom","url":"https://pokeapi.co/api/v2/pokemon-species/644/"},{"name":"landorus","url":"https://pokeapi.co/api/v2/pokemon-species/645/"},{"name":"kyurem","url":"https://pokeapi.co/api/v2/pokemon-species/646/"},{"name":"keldeo","url":"https://pokeapi.co/api/v2/pokemon-species/647/"},{"name":"meloetta","url":"https://pokeapi.co/api/v2/pokemon-species/648/"},{"name":"genesect","url":"https://pokeapi.co/api/v2/pokemon-species/649/"},{"name":"chespin","url":"https://pokeapi.co/api/v2/pokemon-species/650/"},{"name":"quilladin","url":"https://pokeapi.co/api/v2/pokemon-species/651/"},{"name":"chesnaught","url":"https://pokeapi.co/api/v2/pokemon-species/652/"},{"name":"fennekin","url":"https://pokeapi.co/api/v2/pokemon-species/653/"},{"name":"braixen","url":"https://pokeapi.co/api/v2/pokemon-species/654/"},{"name":"delphox","url":"https://pokeapi.co/api/v2/pokemon-species/655/"},{"name":"froakie","url":"https://pokeapi.co/api/v2/pokemon-species/656/"},{"name":"frogadier","url":"https://pokeapi.co/api/v2/pokemon-species/657/"},{"name":"greninja","url":"https://pokeapi.co/api/v2/pokemon-species/658/"},{"name":"bunnelby","url":"https://pokeapi.co/api/v2/pokemon-species/659/"},{"name":"diggersby","url":"https://pokeapi.co/api/v2/pokemon-species/660/"}]}