{"count":807,"next":"https://pokeapi.co/api/v2/pokemon-species?offset=800&limit=7","previous":"https://pokeapi.co/api/v2/pokemon-species?offset=760&limit=20","results":[{"name":"dhelmise","url":"https://pokeapi.co/api/v2/pokemon-species/781/"},{"name":"jangmo-o","url":"https://pokeapi.co/api/v2/pokemon-species/782/"},{"name":"hakamo-o","url":"https://pokeapi.co/api/v2/pokemon-species/783/"},{"name":"kommo-o","url":"https://pokeapi.co/api/v2/pokemon-species/784/"},{"name":"tapu-koko","url":"https://pokeapi.co/api/v2/pokemon-species/785/"},{"name":"tapu-lele","url":"https://pokeapi.co/api/v2/pokemon-species/786/"},{"name":"tapu-bulu","url":"https://pokeapi.co/api/v2/pokemon-species/787/"},{"name":"tapu-fini","url":"https://pokeapi.co/api/v2/pokemon-species/788/"},{"name":"cosmog","url":"https://pokeapi.co/api/v2/pokemon-species/789/"},{"name":"cosmoem","url":"https://pokeapi.co/api/v2/pokemon-species/790/"},{"name":"solgaleo","url":"https://pokeapi.co/api/v2/pokemon-species/791/"},{"name":"lunala","url":"https://pokeapi.co/api/v2/pokemon-species/792/"},{"name":"nihilego","url":"https://pokeapi.co/api/v2/pokemon-species/793/"},{"name":"buzzwole","url":"https://pokeapi.co/api/v2/pokemon-species/794/"},{"name":"pheromosa","url":"https://pokeapi.co/api/v2/pokemon-species/795/"},{"name":"xurkitree","url":"https://pokeapi.co/api/v2/pokemon-species/796/"},{"name":"celesteela","url":"https://pokeapi.co/api/v2/pokemon-species/797/"},{"name":"kartana","url":"https://pokeapi.co/api/v2/pokemon-species/798/"},{"name":"guzzlord","url":"https://pokeapi.co/api/v2/pokemon-species/799/"},{"name":"necrozma","url":"https://pokeapi.co/api/v2/pokemon-species/800/"}]}