{"count":807,"next":"https://pokeapi.co/api/v2/pokemon-species?offset=440&limit=20","previous":"https://pokeapi.co/api/v2/pokemon-species?offset=400&limit=20","results":[{"name":"cherrim","url":"https://pokeapi.co/api/v2/pokemon-species/421/"},{"name":"shellos","url":"https://pokeapi.co/api/v2/pokemon-species/422/"},{"name":"gastrodon","url":"https://pokeapi.co/api/v2/pokemon-species/423/"},{"name":"ambipom","url":"https://pokeapi.co/api/v2/pokemon-species/424/"},{"name":"drifloon","url":"https://pokeapi.co/api/v2/pokemon-species/425/"},{"name":"drifblim","url":"https://pokeapi.co/api/v2/pokemon-species/426/"},{"name":"buneary","url":"https://pokeapi.co/api/v2/pokemon-species/427/"},{"name":"lopunny","url":"https://pokeapi.co/api/v2/pokemon-species/428/"},{"name":"mismagius","url":"https://pokeapi.co/api/v2/pokemon-species/429/"},{"name":"honchkrow","url":"https://pokeapi.co/api/v2/pokemon-species/430/"},{"name":"glameow","url":"https://pokeapi.co/api/v2/pokemon-species/431/"},{"name":"purugly","url":"https://pokeapi.co/api/v2/pokemon-species/432/"},{"name":"chingling","url":"https://pokeapi.co/api/v2/pokemon-species/433/"},{"name":"stunky","url":"https://pokeapi.co/api/v2/pokemon-species/434/"},{"name":"skuntank","url":"https://pokeapi.co/api/v2/pokemon-species/435/"},{"name":"bronzor","url":"https://pokeapi.co/api/v2/pokemon-species/436/"},{"name":"bronzong","url":"https://pokeapi.co/api/v2/pokemon-species/437/"},{"name":"bonsly","url":"https://pokeapi.co/api/v2/pokemon-species/438/"},{"name":"mime-jr","url":"https://pokeapi.co/api/v2/pokemon-species/439/"},{"name":"happiny","url":"https://pokeapi.co/api/v2/pokemon-species/440/"}]}