{"count":807,"next":"https://pokeapi.co/api/v2/pokemon-species?offset=220&limit=20","previous":"https://pokeapi.co/api/v2/pokemon-species?offset=180&limit=20","results":[{"name":"unown","url":"https://pokeapi.co/api/v2/pokemon-species/201/"},{"name":"wobbuffet","url":"https://pokeapi.co/api/v2/pokemon-species/202/"},{"name":"girafarig","url":"https://pokeapi.co/api/v2/pokemon-species/203/"},{"name":"pineco","url":"https://pokeapi.co/api/v2/pokemon-species/204/"},{"name":"forretress","url":"https://pokeapi.co/api/v2/pokemon-species/205/"},{"name":"dunsparce","url":"https://pokeapi.co/api/v2/pokemon-species/206/"},{"name":"gligar","url":"https://pokeapi.co/api/v2/pokemon-species/207/"},{"name":"steelix","url":"https://pokeapi.co/api/v2/pokemon-species/208/"},{"name":"snubbull","url":"https://pokeapi.co/api/v2/pokemon-species/209/"},{"name":"granbull","url":"https://pokeapi.co/api/v2/pokemon-species/210/"},{"name":"qwilfish","url":"https://pokeapi.co/api/v2/pokemon-species/211/"},{"name":"scizor","url":"https://pokeapi.co/api/v2/pokemon-species/212/"},{"name":"shuckle","url":"https://pokeapi.co/api/v2/pokemon-species/213/"},{"name":"heracross","url":"https://pokeapi.co/api/v2/pokemon-species/214/"},{"name":"sneasel","url":"https://pokeapi.co/api/v2/pokemon-species/215/"},{"name":"teddiursa","url":"https://pokeapi.co/api/v2/pokemon-species/216/"},{"name":"ursaring","url":"https://pokeapi.co/api/v2/pokemon-species/217/"},{"name":"slugma","url":"https://pokeapi.co/api/v2/pokemon-species/218/"},{"name":"magcargo","url":"https://pokeapi.co/api/v2/pokemon-species/219/"},{"name":"swinub","url":"https://pokeapi.co/api/v2/pokemon-species/220/"}]}