{"count":807,"next":"https://pokeapi.co/api/v2/pokemon-species?offset=540&limit=20","previous":"https://pokeapi.co/api/v2/pokemon-species?offset=500&limit=20","results":[{"name":"unfezant","url":"https://pokeapi.co/api/v2/pokemon-species/521/"},{"name":"blitzle","url":"https://pokeapi.co/api/v2/pokemon-species/522/"},{"name":"zebstrika","url":"https://pokeapi.co/api/v2/pokemon-species/523/"},{"name":"roggenrola","url":"https://pokeapi.co/api/v2/pokemon-species/524/"},{"name":"boldore","url":"https://pokeapi.co/api/v2/pokemon-species/525/"},{"name":"gigalith","url":"https://pokeapi.co/api/v2/pokemon-species/526/"},{"name":"woobat","url":"https://pokeapi.co/api/v2/pokemon-species/527/"},{"name":"swoobat","url":"https://pokeapi.co/api/v2/pokemon-species/528/"},{"name":"drilbur","url":"https://pokeapi.co/api/v2/pokemon-species/529/"},{"name":"excadrill","url":"https://pokeapi.co/api/v2/pokemon-species/530/"},{"name":"audino","url":"https://pokeapi.co/api/v2/pokemon-species/531/"},{"name":"timburr","url":"https://pokeapi.co/api/v2/pokemon-species/532/"},{"name":"gurdurr","url":"https://pokeapi.co/api/v2/pokemon-species/533/"},{"name":"conkeldurr","url":"https://pokeapi.co/api/v2/pokemon-species/534/"},{"name":"tympole","url":"https://pokeapi.co/api/v2/pokemon-species/535/"},{"name":"palpitoad","url":"https://pokeapi.co/api/v2/pokemon-species/536/"},{"name":"seismitoad","url":"https://pokeapi.co/api/v2/pokemon-species/537/"},{"name":"throh","url":"https://pokeapi.co/api/v2/pokemon-species/538/"},{"name":"sawk","url":"https://pokeapi.co/api/v2/pokemon-species/539/"},{"name":"sewaddle","url":"https://pokeapi.co/api/v2/pokemon-species/540/"}]}