{"count":807,"next":"https://pokeapi.co/api/v2/pokemon-species?offset=120&limit=20","previous":"https://pokeapi.co/api/v2/pokemon-species?offset=80&limit=20","results":[{"name":"electrode","url":"https://pokeapi.co/api/v2/pokemon-species/101/"},{"name":"exeggcute","url":"https://pokeapi.co/api/v2/pokemon-species/102/"},{"name":"exeggutor","url":"https://pokeapi.co/api/v2/pokemon-species/103/"},{"name":"cubone","url":"https://pokeapi.co/api/v2/pokemon-species/104/"},{"name":"marowak","url":"https://pokeapi.co/api/v2/pokemon-species/105/"},{"name":"hitmonlee","url":"https://pokeapi.co/api/v2/pokemon-species/106/"},{"name":"hitmonchan","url":"https://pokeapi.co/api/v2/pokemon-species/107/"},{"name":"lickitung","url":"https://pokeapi.co/api/v2/pokemon-species/108/"},{"name":"koffing","url":"https://pokeapi.co/api/v2/pokemon-species/109/"},{"name":"weezing","url":"https://pokeapi.co/api/v2/pokemon-species/110/"},{"name":"rhyhorn","url":"https://pokeapi.co/api/v2/pokemon-species/111/"},{"name":"rhydon","url":"https://pokeapi.co/api/v2/pokemon-species/112/"},{"name":"chansey","url":"https://pokeapi.co/api/v2/pokemon-species/113/"},{"name":"tangela","url":"https://pokeapi.co/api/v2/pokemon-species/114/"},{"name":"kangaskhan","url":"https://pokeapi.co/api/v2/pokemon-species/115/"},{"name":"horsea","url":"https://pokeapi.co/api/v2/pokemon-species/116/"},{"name":"seadra","url":"https://pokeapi.co/api/v2/pokemon-species/117/"},{"name":"goldeen","url":"https://pokeapi.co/api/v2/pokemon-species/118/"},{"name":"seaking","url":"https://pokeapi.co/api/v2/pokemon-species/119/"},{"name":"staryu","url":"https://pokeapi.co/api/v2/pokemon-species/120/"}]}