{"count":807,"next":"https://pokeapi.co/api/v2/pokemon-species?offset=160&limit=20","previous":"https://pokeapi.co/api/v2/pokemon-species?offset=120&limit=20","results":[{"name":"kabutops","url":"https://pokeapi.co/api/v2/pokemon-species/141/"},{"name":"aerodactyl","url":"https://pokeapi.co/api/v2/pokemon-species/142/"},{"name":"snorlax","url":"https://pokeapi.co/api/v2/pokemon-species/143/"},{"name":"articuno","url":"https://pokeapi.co/api/v2/pokemon-species/144/"},{"name":"zapdos","url":"https://pokeapi.co/api/v2/pokemon-species/145/"},{"name":"moltres","url":"https://pokeapi.co/api/v2/pokemon-species/146/"},{"name":"dratini","url":"https://pokeapi.co/api/v2/pokemon-species/147/"},{"name":"dragonair","url":"https://pokeapi.co/api/v2/pokemon-species/148/"},{"name":"dragonite","url":"https://pokeapi.co/api/v2/pokemon-species/149/"},{"name":"mewtwo","url":"https://pokeapi.co/api/v2/pokemon-species/150/"},{"name":"mew","url":"https://pokeapi.co/api/v2/pokemon-species/151/"},{"name":"chikorita","url":"https://pokeapi.co/api/v2/pokemon-species/152/"},{"name":"bayleef","url":"https://pokeapi.co/api/v2/pokemon-species/153/"},{"name":"meganium","url":"https://pokeapi.co/api/v2/pokemon-species/154/"},{"name":"cyndaquil","url":"https://pokeapi.co/api/v2/pokemon-species/155/"},{"name":"quilava","url":"https://pokeapi.co/api/v2/pokemon-species/156/"},{"name":"typhlosion","url":"https://pokeapi.co/api/v2/pokemon-species/157/"},{"name":"totodile","url":"https://pokeapi.co/api/v2/pokemon-species/158/"},{"name":"croconaw","url":"https://pokeapi.co/api/v2/pokemon-species/159/"},{"name":"feraligatr","url":"https://pokeapi.co/api/v2/pokemon-species/160/"}]}