{"count":807,"next":"https://pokeapi.co/api/v2/pokemon-species?offset=760&limit=20","previous":"https://pokeapi.co/api/v2/pokemon-species?offset=720&limit=20","results":[{"name":"oricorio","url":"https://pokeapi.co/api/v2/pokemon-species/741/"},{"name":"cutiefly","url":"https://pokeapi.co/api/v2/pokemon-species/742/"},{"name":"ribombee","url":"https://pokeapi.co/api/v2/pokemon-species/743/"},{"name":"rockruff","url":"https://pokeapi.co/api/v2/pokemon-species/744/"},{"name":"lycanroc","url":"https://pokeapi.co/api/v2/pokemon-species/745/"},{"name":"wishiwashi","url":"https://pokeapi.co/api/v2/pokemon-species/746/"},{"name":"mareanie","url":"https://pokeapi.co/api/v2/pokemon-species/747/"},{"name":"toxapex","url":"https://pokeapi.co/api/v2/pokemon-species/748/"},{"name":"mudbray","url":"https://pokeapi.co/api/v2/pokemon-species/749/"},{"name":"mudsdale","url":"https://pokeapi.co/api/v2/pokemon-species/750/"},{"name":"dewpider","url":"https://pokeapi.co/api/v2/pokemon-species/751/"},{"name":"araquanid","url":"https://pokeapi.co/api/v2/pokemon-species/752/"},{"name":"fomantis","url":"https://pokeapi.co/api/v2/pokemon-species/753/"},{"name":"lurantis","url":"https://pokeapi.co/api/v2/pokemon-species/754/"},{"name":"morelull","url":"https://pokeapi.co/api/v2/pokemon-species/755/"},{"name":"shiinotic","url":"https://pokeapi.co/api/v2/pokemon-species/756/"},{"name":"salandit","url":"https://pokeapi.co/api/v2/pokemon-species/757/"},{"name":"salazzle","url":"https://pokeapi.co/api/v2/pokemon-species/758/"},{"name":"stufful","url":"https://pokeapi.co/api/v2/pokemon-species/759/"},{"name":"bewear","url":"https://pokeapi.co/api/v2/pokemon-species/760/"}]}