{"count":807,"next":"https://pokeapi.co/api/v2/pokemon-species?offset=60&limit=20","previous":"https://pokeapi.co/api/v2/pokemon-species?offset=20&limit=20","results":[{"name":"zubat","url":"https://pokeapi.co/api/v2/pokemon-species/41/"},{"name":"golbat","url":"https://pokeapi.co/api/v2/pokemon-species/42/"},{"name":"oddish","url":"https://pokeapi.co/api/v2/pokemon-species/43/"},{"name":"gloom","url":"https://pokeapi.co/api/v2/pokemon-species/44/"},{"name":"vileplume","url":"https://pokeapi.co/api/v2/pokemon-species/45/"},{"name":"paras","url":"https://pokeapi.co/api/v2/pokemon-species/46/"},{"name":"parasect","url":"https://pokeapi.co/api/v2/pokemon-species/47/"},{"name":"venonat","url":"https://pokeapi.co/api/v2/pokemon-species/48/"},{"name":"venomoth","url":"https://pokeapi.co/api/v2/pokemon-species/49/"},{"name":"diglett","url":"https://pokeapi.co/api/v2/pokemon-species/50/"},{"name":"dugtrio","url":"https://pokeapi.co/api/v2/pokemon-species/51/"},{"name":"meowth","url":"https://pokeapi.co/api/v2/pokemon-species/52/"},{"name":"persian","url":"https://pokeapi.co/api/v2/pokemon-species/53/"},{"name":"psyduck","url":"https://pokeapi.co/api/v2/pokemon-species/54/"},{"name":"golduck","url":"https://pokeapi.co/api/v2/pokemon-species/55/"},{"name":"mankey","url":"https://pokeapi.co/api/v2/pokemon-species/56/"},{"name":"primeape","url":"https://pokeapi.co/api/v2/pokemon-species/57/"},{"name":"growlithe","url":"https://pokeapi.co/api/v2/pokemon-species/58/"},{"name":"arcanine","url":"https://pokeapi.co/api/v2/pokemon-species/59/"},{"name":"poliwag","url":"https://pokeapi.co/api/v2/pokemon-species/60/"}]}