{"count":807,"next":"https://pokeapi.co/api/v2/pokemon-species?offset=320&limit=20","previous":"https://pokeapi.co/api/v2/pokemon-species?offset=280&limit=20","results":[{"name":"delcatty","url":"https://pokeapi.co/api/v2/pokemon-species/301/"},{"name":"sableye","url":"https://pokeapi.co/api/v2/pokemon-species/302/"},{"name":"mawile","url":"https://pokeapi.co/api/v2/pokemon-species/303/"},{"name":"aron","url":"https://pokeapi.co/api/v2/pokemon-species/304/"},{"name":"lairon","url":"https://pokeapi.co/api/v2/pokemon-species/305/"},{"name":"aggron","url":"https://pokeapi.co/api/v2/pokemon-species/306/"},{"name":"meditite","url":"https://pokeapi.co/api/v2/pokemon-species/307/"},{"name":"medicham","url":"https://pokeapi.co/api/v2/pokemon-species/308/"},{"name":"electrike","url":"https://pokeapi.co/api/v2/pokemon-species/309/"},{"name":"manectric","url":"https://pokeapi.co/api/v2/pokemon-species/310/"},{"name":"plusle","url":"https://pokeapi.co/api/v2/pokemon-species/311/"},{"name":"minun","url":"https://pokeapi.co/api/v2/pokemon-species/312/"},{"name":"volbeat","url":"https://pokeapi.co/api/v2/pokemon-species/313/"},{"name":"illumise","url":"https://pokeapi.co/api/v2/pokemon-species/314/"},{"name":"roselia","url":"https://pokeapi.co/api/v2/pokemon-species/315/"},{"name":"gulpin","url":"https://pokeapi.co/api/v2/pokemon-species/316/"},{"name":"swalot","url":"https://pokeapi.co/api/v2/pokemon-species/317/"},{"name":"carvanha","url":"https://pokeapi.co/api/v2/pokemon-species/318/"},{"name":"sharpedo","url":"https://pokeapi.co/api/v2/pokemon-species/319/"},{"name":"wailmer","url":"https://pokeapi.co/api/v2/pokemon-species/320/"}]}