{"count":807,"next":"https://pokeapi.co/api/v2/pokemon-species?offset=740&limit=20","previous":"https://pokeapi.co/api/v2/pokemon-species?offset=700&limit=20","results":[{"name":"volcanion","url":"https://pokeapi.co/api/v2/pokemon-species/721/"},{"name":"rowlet","url":"https://pokeapi.co/api/v2/pokemon-species/722/"},{"name":"dartrix","url":"https://pokeapi.co/api/v2/pokemon-species/723/"},{"name":"decidueye","url":"https://pokeapi.co/api/v2/pokemon-species/724/"},{"name":"litten","url":"https://pokeapi.co/api/v2/pokemon-species/725/"},{"name":"torracat","url":"https://pokeapi.co/api/v2/pokemon-species/726/"},{"name":"incineroar","url":"https://pokeapi.co/api/v2/pokemon-species/727/"},{"name":"popplio","url":"https://pokeapi.co/api/v2/pokemon-species/728/"},{"name":"brionne","url":"https://pokeapi.co/api/v2/pokemon-species/729/"},{"name":"primarina","url":"https://pokeapi.co/api/v2/pokemon-species/730/"},{"name":"pikipek","url":"https://pokeapi.co/api/v2/pokemon-species/731/"},{"name":"trumbeak","url":"https://pokeapi.co/api/v2/pokemon-species/732/"},{"name":"toucannon","url":"https://pokeapi.co/api/v2/pokemon-species/733/"},{"name":"yungoos","url":"https://pokeapi.co/api/v2/pokemon-species/734/"},{"name":"gumshoos","url":"https://pokeapi.co/api/v2/pokemon-species/735/"},{"name":"grubbin","url":"https://pokeapi.co/api/v2/pokemon-species/736/"},{"name":"charjabug","url":"https://pokeapi.co/api/v2/pokemon-species/737/"},{"name":"vikavolt","url":"https://pokeapi.co/api/v2/pokemon-species/738/"},{"name":"crabrawler","url":"https://pokeapi.co/api/v2/pokemon-species/739/"},{"name":"crabominable","url":"https://pokeapi.co/api/v2/pokemon-species/740/"}]}