{"count":807,"next":"https://pokeapi.co/api/v2/pokemon-species?offset=400&limit=20","previous":"https://pokeapi.co/api/v2/pokemon-species?offset=360&limit=20","results":[{"name":"latios","url":"https://pokeapi.co/api/v2/pokemon-species/381/"},{"name":"kyogre","url":"https://pokeapi.co/api/v2/pokemon-species/382/"},{"name":"groudon","url":"https://pokeapi.co/api/v2/pokemon-species/383/"},{"name":"rayquaza","url":"https://pokeapi.co/api/v2/pokemon-species/384/"},{"name":"jirachi","url":"https://pokeapi.co/api/v2/pokemon-species/385/"},{"name":"deoxys","url":"https://pokeapi.co/api/v2/pokemon-species/386/"},{"name":"turtwig","url":"https://pokeapi.co/api/v2/pokemon-species/387/"},{"name":"grotle","url":"https://pokeapi.co/api/v2/pokemon-species/388/"},{"name":"torterra","url":"https://pokeapi.co/api/v2/pokemon-species/389/"},{"name":"chimchar","url":"https://pokeapi.co/api/v2/pokemon-species/390/"},{"name":"monferno","url":"https://pokeapi.co/api/v2/pokemon-species/391/"},{"name":"infernape","url":"https://pokeapi.co/api/v2/pokemon-species/392/"},{"name":"piplup","url":"https://pokeapi.co/api/v2/pokemon-species/393/"},{"name":"prinplup","url":"https://pokeapi.co/api/v2/pokemon-species/394/"},{"name":"empoleon","url":"https://pokeapi.co/api/v2/pokemon-species/395/"},{"name":"starly","url":"https://pokeapi.co/api/v2/pokemon-species/396/"},{"name":"staravia","url":"https://pokeapi.co/api/v2/pokemon-species/397/"},{"name":"staraptor","url":"https://pokeapi.co/api/v2/pokemon-species/398/"},{"name":"bidoof","url":"https://pokeapi.co/api/v2/pokemon-species/399/"},{"name":"bibarel","url":"https://pokeapi.co/api/v2/pokemon-species/400/"}]}