{"count":807,"next":"https://pokeapi.co/api/v2/pokemon-species?offset=180&limit=20","previous":"https://pokeapi.co/api/v2/pokemon-species?offset=140&limit=20","results":[{"name":"sentret","url":"https://pokeapi.co/api/v2/pokemon-species/161/"},{"name":"furret","url":"https://pokeapi.co/api/v2/pokemon-species/162/"},{"name":"hoothoot","url":"https://pokeapi.co/api/v2/pokemon-species/163/"},{"name":"noctowl","url":"https://pokeapi.co/api/v2/pokemon-species/164/"},{"name":"ledyba","url":"https://pokeapi.co/api/v2/pokemon-species/165/"},{"name":"ledian","url":"https://pokeapi.co/api/v2/pokemon-species/166/"},{"name":"spinarak","url":"https://pokeapi.co/api/v2/pokemon-species/167/"},{"name":"ariados","url":"https://pokeapi.co/api/v2/pokemon-species/168/"},{"name":"crobat","url":"https://pokeapi.co/api/v2/pokemon-species/169/"},{"name":"chinchou","url":"https://pokeapi.co/api/v2/pokemon-species/170/"},{"name":"lanturn","url":"https://pokeapi.co/api/v2/pokemon-species/171/"},{"name":"pichu","url":"https://pokeapi.co/api/v2/pokemon-species/172/"},{"name":"cleffa","url":"https://pokeapi.co/api/v2/pokemon-species/173/"},{"name":"igglybuff","url":"https://pokeapi.co/api/v2/pokemon-species/174/"},{"name":"togepi","url":"https://pokeapi.co/api/v2/pokemon-species/175/"},{"name":"togetic","url":"https://pokeapi.co/api/v2/pokemon-species/176/"},{"name":"natu","url":"https://pokeapi.co/api/v2/pokemon-species/177/"},{"name":"xatu","url":"https://pokeapi.co/api/v2/pokemon-species/178/"},{"name":"mareep","url":"https://pokeapi.co/api/v2/pokemon-species/179/"},{"name":"flaaffy","url":"https://pokeapi.co/api/v2/pokemon-species/180/"}]}