{"count":807,"next":"https://pokeapi.co/api/v2/pokemon-species?offset=780&limit=20","previous":"https://pokeapi.co/api/v2/pokemon-species?offset=740&limit=20","results":[{"name":"bounsweet","url":"https://pokeapi.co/api/v2/pokemon-species/761/"},{"name":"steenee","url":"https://pokeapi.co/api/v2/pokemon-species/762/"},{"name":"tsareena","url":"https://pokeapi.co/api/v2/pokemon-species/763/"},{"name":"comfey","url":"https://pokeapi.co/api/v2/pokemon-species/764/"},{"name":"oranguru","url":"https://pokeapi.co/api/v2/pokemon-species/765/"},{"name":"passimian","url":"https://pokeapi.co/api/v2/pokemon-species/766/"},{"name":"wimpod","url":"https://pokeapi.co/api/v2/pokemon-species/767/"},{"name":"golisopod","url":"https://pokeapi.co/api/v2/pokemon-species/768/"},{"name":"sandygast","url":"https://pokeapi.co/api/v2/pokemon-species/769/"},{"name":"palossand","url":"https://pokeapi.co/api/v2/pokemon-species/770/"},{"name":"pyukumuku","url":"https://pokeapi.co/api/v2/pokemon-species/771/"},{"name":"type-null","url":"https://pokeapi.co/api/v2/pokemon-species/772/"},{"name":"silvally","url":"https://pokeapi.co/api/v2/pokemon-species/773/"},{"name":"minior","url":"https://pokeapi.co/api/v2/pokemon-species/774/"},{"name":"komala","url":"https://pokeapi.co/api/v2/pokemon-species/775/"},{"name":"turtonator","url":"https://pokeapi.co/api/v2/pokemon-species/776/"},{"name":"togedemaru","url":"https://pokeapi.co/api/v2/pokemon-species/777/"},{"name":"mimikyu","url":"https://pokeapi.co/api/v2/pokemon-species/778/"},{"name":"bruxish","url":"https://pokeapi.co/api/v2/pokemon-species/779/"},{"name":"drampa","url":"https://pokeapi.co/api/v2/pokemon-species/780/"}]}