{"count":807,"next":"https://pokeapi.co/api/v2/pokemon-species?offset=600&limit=20","previous":"https://pokeapi.co/api/v2/pokemon-species?offset=560&limit=20","results":[{"name":"swanna","url":"https://pokeapi.co/api/v2/pokemon-species/581/"},{"name":"vanillite","url":"https://pokeapi.co/api/v2/pokemon-species/582/"},{"name":"vanillish","url":"https://pokeapi.co/api/v2/pokemon-species/583/"},{"name":"vanilluxe","url":"https://pokeapi.co/api/v2/pokemon-species/584/"},{"name":"deerling","url":"https://pokeapi.co/api/v2/pokemon-species/585/"},{"name":"sawsbuck","url":"https://pokeapi.co/api/v2/pokemon-species/586/"},{"name":"emolga","url":"https://pokeapi.co/api/v2/pokemon-species/587/"},{"name":"karrablast","url":"https://pokeapi.co/api/v2/pokemon-species/588/"},{"name":"escavalier","url":"https://pokeapi.co/api/v2/pokemon-species/589/"},{"name":"foongus","url":"https://pokeapi.co/api/v2/pokemon-species/590/"},{"name":"amoonguss","url":"https://pokeapi.co/api/v2/pokemon-species/591/"},{"name":"frillish","url":"https://pokeapi.co/api/v2/pokemon-species/592/"},{"name":"jellicent","url":"https://pokeapi.co/api/v2/pokemon-species/593/"},{"name":"alomomola","url":"https://pokeapi.co/api/v2/pokemon-species/594/"},{"name":"joltik","url":"https://pokeapi.co/api/v2/pokemon-species/595/"},{"name":"galvantula","url":"https://pokeapi.co/api/v2/pokemon-species/596/"},{"name":"ferroseed","url":"https://pokeapi.co/api/v2/pokemon-species/597/"},{"name":"ferrothorn","url":"https://pokeapi.co/api/v2/pokemon-species/598/"},{"name":"klink","url":"https://pokeapi.co/api/v2/pokemon-species/599/"},{"name":"klang","url":"https://pokeapi.co/api/v2/pokemon-species/600/"}]}