{"count":807,"next":"https://pokeapi.co/api/v2/pokemon-species?offset=360&limit=20","previous":"https://pokeapi.co/api/v2/pokemon-species?offset=320&limit=20","results":[{"name":"corphish","url":"https://pokeapi.co/api/v2/pokemon-species/341/"},{"name":"crawdaunt","url":"https://pokeapi.co/api/v2/pokemon-species/342/"},{"name":"baltoy","url":"https://pokeapi.co/api/v2/pokemon-species/343/"},{"name":"claydol","url":"https://pokeapi.co/api/v2/pokemon-species/344/"},{"name":"lileep","url":"https://pokeapi.co/api/v2/pokemon-species/345/"},{"name":"cradily","url":"https://pokeapi.co/api/v2/pokemon-species/346/"},{"name":"anorith","url":"https://pokeapi.co/api/v2/pokemon-species/347/"},{"name":"armaldo","url":"https://pokeapi.co/api/v2/pokemon-species/348/"},{"name":"feebas","url":"https://pokeapi.co/api/v2/pokemon-species/349/"},{"name":"milotic","url":"https://pokeapi.co/api/v2/pokemon-species/350/"},{"name":"castform","url":"https://pokeapi.co/api/v2/pokemon-species/351/"},{"name":"kecleon","url":"https://pokeapi.co/api/v2/pokemon-species/352/"},{"name":"shuppet","url":"https://pokeapi.co/api/v2/pokemon-species/353/"},{"name":"banette","url":"https://pokeapi.co/api/v2/pokemon-species/354/"},{"name":"duskull","url":"https://pokeapi.co/api/v2/pokemon-species/355/"},{"name":"dusclops","url":"https://pokeapi.co/api/v2/pokemon-species/356/"},{"name":"tropius","url":"https://pokeapi.co/api/v2/pokemon-species/357/"},{"name":"chimecho","url":"https://pokeapi.co/api/v2/pokemon-species/358/"},{"name":"absol","url":"https://pokeapi.co/api/v2/pokemon-species/359/"},{"name":"wynaut","url":"https://pokeapi.co/api/v2/pokemon-species/360/"}]}