{"count":807,"next":"https://pokeapi.co/api/v2/pokemon-species?offset=340&limit=20","previous":"https://pokeapi.co/api/v2/pokemon-species?offset=300&limit=20","results":[{"name":"wailord","url":"https://pokeapi.co/api/v2/pokemon-species/321/"},{"name":"numel","url":"https://pokeapi.co/api/v2/pokemon-species/322/"},{"name":"camerupt","url":"https://pokeapi.co/api/v2/pokemon-species/323/"},{"name":"torkoal","url":"https://pokeapi.co/api/v2/pokemon-species/324/"},{"name":"spoink","url":"https://pokeapi.co/api/v2/pokemon-species/325/"},{"name":"grumpig","url":"https://pokeapi.co/api/v2/pokemon-species/326/"},{"name":"spinda","url":"https://pokeapi.co/api/v2/pokemon-species/327/"},{"name":"trapinch","url":"https://pokeapi.co/api/v2/pokemon-species/328/"},{"name":"vibrava","url":"https://pokeapi.co/api/v2/pokemon-species/329/"},{"name":"flygon","url":"https://pokeapi.co/api/v2/pokemon-species/330/"},{"name":"cacnea","url":"https://pokeapi.co/api/v2/pokemon-species/331/"},{"name":"cacturne","url":"https://pokeapi.co/api/v2/pokemon-species/332/"},{"name":"swablu","url":"https://pokeapi.co/api/v2/pokemon-species/333/"},{"name":"altaria","url":"https://pokeapi.co/api/v2/pokemon-species/334/"},{"name":"zangoose","url":"https://pokeapi.co/api/v2/pokemon-species/335/"},{"name":"seviper","url":"https://pokeapi.co/api/v2/pokemon-species/336/"},{"name":"lunatone","url":"https://pokeapi.co/api/v2/pokemon-species/337/"},{"name":"solrock","url":"https://pokeapi.co/api/v2/pokemon-species/338/"},{"name":"barboach","url":"https://pokeapi.co/api/v2/pokemon-species/339/"},{"name":"whiscash","url":"https://pokeapi.co/api/v2/pokemon-species/340/"}]}