{"count":807,"next":"https://pokeapi.co/api/v2/pokemon-species?offset=560&limit=20","previous":"https://pokeapi.co/api/v2/pokemon-species?offset=520&limit=20","results":[{"name":"swadloon","url":"https://pokeapi.co/api/v2/pokemon-species/541/"},{"name":"leavanny","url":"https://pokeapi.co/api/v2/pokemon-species/542/"},{"name":"venipede","url":"https://pokeapi.co/api/v2/pokemon-species/543/"},{"name":"whirlipede","url":"https://pokeapi.co/api/v2/pokemon-species/544/"},{"name":"scolipede","url":"https://pokeapi.co/api/v2/pokemon-species/545/"},{"name":"cottonee","url":"https://pokeapi.co/api/v2/pokemon-species/546/"},{"name":"whimsicott","url":"https://pokeapi.co/api/v2/pokemon-species/547/"},{"name":"petilil","url":"https://pokeapi.co/api/v2/pokemon-species/548/"},{"name":"lilligant","url":"https://pokeapi.co/api/v2/pokemon-species/549/"},{"name":"basculin","url":"https://pokeapi.co/api/v2/pokemon-species/550/"},{"name":"sandile","url":"https://pokeapi.co/api/v2/pokemon-species/551/"},{"name":"krokorok","url":"https://pokeapi.co/api/v2/pokemon-species/552/"},{"name":"krookodile","url":"https://pokeapi.co/api/v2/pokemon-species/553/"},{"name":"darumaka","url":"https://pokeapi.co/api/v2/pokemon-species/554/"},{"name":"darmanitan","url":"https://pokeapi.co/api/v2/pokemon-species/555/"},{"name":"maractus","url":"https://pokeapi.co/api/v2/pokemon-species/556/"},{"name":"dwebble","url":"https://pokeapi.co/api/v2/pokemon-species/557/"},{"name":"crustle","url":"https://pokeapi.co/api/v2/pokemon-species/558/"},{"name":"scraggy","url":"https://pokeapi.co/api/v2/pokemon-species/559/"},{"name":"scrafty","url":"https://pokeapi.co/api/v2/pokemon-species/560/"}]}