{"count":807,"next":"https://pokeapi.co/api/v2/pokemon-species?offset=640&limit=20","previous":"https://pokeapi.co/api/v2/pokemon-species?offset=600&limit=20","results":[{"name":"druddigon","url":"https://pokeapi.co/api/v2/pokemon-species/621/"},{"name":"golett","url":"https://pokeapi.co/api/v2/pokemon-species/622/"},{"name":"golurk","url":"https://pokeapi.co/api/v2/pokemon-species/623/"},{"name":"pawniard","url":"https://pokeapi.co/api/v2/pokemon-species/624/"},{"name":"bisharp","url":"https://pokeapi.co/api/v2/pokemon-species/625/"},{"name":"bouffalant","url":"https://pokeapi.co/api/v2/pokemon-species/626/"},{"name":"rufflet","url":"https://pokeapi.co/api/v2/pokemon-species/627/"},{"name":"braviary","url":"https://pokeapi.co/api/v2/pokemon-species/628/"},{"name":"vullaby","url":"https://pokeapi.co/api/v2/pokemon-species/629/"},{"name":"mandibuzz","url":"https://pokeapi.co/api/v2/pokemon-species/630/"},{"name":"heatmor","url":"https://pokeapi.co/api/v2/pokemon-species/631/"},{"name":"durant","url":"https://pokeapi.co/api/v2/pokemon-species/632/"},{"name":"deino","url":"https://pokeapi.co/api/v2/pokemon-species/633/"},{"name":"zweilous","url":"https://pokeapi.co/api/v2/pokemon-species/634/"},{"name":"hydreigon","url":"https://pokeapi.co/api/v2/pokemon-species/635/"},{"name":"larvesta","url":"https://pokeapi.co/api/v2/pokemon-species/636/"},{"name":"volcarona","url":"https://pokeapi.co/api/v2/pokemon-species/637/"},{"name":"cobalion","url":"https://pokeapi.co/api/v2/pokemon-species/638/"},{"name":"terrakion","url":"https://pokeapi.co/api/v2/pokemon-species/639/"},{"name":"virizion","url":"https://pokeapi.co/api/v2/pokemon-species/640/"}]}