{"count":807,"next":"https://pokeapi.co/api/v2/pokemon-species?offset=300&limit=20","previous":"https://pokeapi.co/api/v2/pokemon-species?offset=260&limit=20","results":[{"name":"kirlia","url":"https://pokeapi.co/api/v2/pokemon-species/281/"},{"name":"gardevoir","url":"https://pokeapi.co/api/v2/pokemon-species/282/"},{"name":"surskit","url":"https://pokeapi.co/api/v2/pokemon-species/283/"},{"name":"masquerain","url":"https://pokeapi.co/api/v2/pokemon-species/284/"},{"name":"shroomish","url":"https://pokeapi.co/api/v2/pokemon-species/285/"},{"name":"breloom","url":"https://pokeapi.co/api/v2/pokemon-species/286/"},{"name":"slakoth","url":"https://pokeapi.co/api/v2/pokemon-species/287/"},{"name":"vigoroth","url":"https://pokeapi.co/api/v2/pokemon-species/288/"},{"name":"slaking","url":"https://pokeapi.co/api/v2/pokemon-species/289/"},{"name":"nincada","url":"https://pokeapi.co/api/v2/pokemon-species/290/"},{"name":"ninjask","url":"https://pokeapi.co/api/v2/pokemon-species/291/"},{"name":"shedinja","url":"https://pokeapi.co/api/v2/pokemon-species/292/"},{"name":"whismur","url":"https://pokeapi.co/api/v2/pokemon-species/293/"},{"name":"loudred","url":"https://pokeapi.co/api/v2/pokemon-species/294/"},{"name":"exploud","url":"https://pokeapi.co/api/v2/pokemon-species/295/"},{"name":"makuhita","url":"https://pokeapi.co/api/v2/pokemon-species/296/"},{"name":"hariyama","url":"https://pokeapi.co/api/v2/pokemon-species/297/"},{"name":"azurill","url":"https://pokeapi.co/api/v2/pokemon-species/298/"},{"name":"nosepass","url":"https://pokeapi.co/api/v2/pokemon-species/299/"},{"name":"skitty","url":"https://pokeapi.co/api/v2/pokemon-species/300/"}]}