{"count":807,"next":"https://pokeapi.co/api/v2/pokemon-species?offset=80&limit=20","previous":"https://pokeapi.co/api/v2/pokemon-species?offset=40&limit=20","results":[{"name":"poliwhirl","url":"https://pokeapi.co/api/v2/pokemon-species/61/"},{"name":"poliwrath","url":"https://pokeapi.co/api/v2/pokemon-species/62/"},{"name":"abra","url":"https://pokeapi.co/api/v2/pokemon-species/63/"},{"name":"kadabra","url":"https://pokeapi.co/api/v2/pokemon-species/64/"},{"name":"alakazam","url":"https://pokeapi.co/api/v2/pokemon-species/65/"},{"name":"machop","url":"https://pokeapi.co/api/v2/pokemon-species/66/"},{"name":"machoke","url":"https://pokeapi.co/api/v2/pokemon-species/67/"},{"name":"machamp","url":"https://pokeapi.co/api/v2/pokemon-species/68/"},{"name":"bellsprout","url":"https://pokeapi.co/api/v2/pokemon-species/69/"},{"name":"weepinbell","url":"https://pokeapi.co/api/v2/pokemon-species/70/"},{"name":"victreebel","url":"https://pokeapi.co/api/v2/pokemon-species/71/"},{"name":"tentacool","url":"https://pokeapi.co/api/v2/pokemon-species/72/"},{"name":"tentacruel","url":"https://pokeapi.co/api/v2/pokemon-species/73/"},{"name":"geodude","url":"https://pokeapi.co/api/v2/pokemon-species/74/"},{"name":"graveler","url":"https://pokeapi.co/api/v2/pokemon-species/75/"},{"name":"golem","url":"https://pokeapi.co/api/v2/pokemon-species/76/"},{"name":"ponyta","url":"https://pokeapi.co/api/v2/pokemon-species/77/"},{"name":"rapidash","url":"https://pokeapi.co/api/v2/pokemon-species/78/"},{"name":"slowpoke","url":"https://pokeapi.co/api/v2/pokemon-species/79/"},{"name":"slowbro","url":"https://pokeapi.co/api/v2/pokemon-species/80/"}]}