{"count":807,"next":"https://pokeapi.co/api/v2/pokemon-species?offset=580&limit=20","previous":"https://pokeapi.co/api/v2/pokemon-species?offset=540&limit=20","results":[{"name":"sigilyph","url":"https://pokeapi.co/api/v2/pokemon-species/561/"},{"name":"yamask","url":"https://pokeapi.co/api/v2/pokemon-species/562/"},{"name":"cofagrigus","url":"https://pokeapi.co/api/v2/pokemon-species/563/"},{"name":"tirtouga","url":"https://pokeapi.co/api/v2/pokemon-species/564/"},{"name":"carracosta","url":"https://pokeapi.co/api/v2/pokemon-species/565/"},{"name":"archen","url":"https://pokeapi.co/api/v2/pokemon-species/566/"},{"name":"archeops","url":"https://pokeapi.co/api/v2/pokemon-species/567/"},{"name":"trubbish","url":"https://pokeapi.co/api/v2/pokemon-species/568/"},{"name":"garbodor","url":"https://pokeapi.co/api/v2/pokemon-species/569/"},{"name":"zorua","url":"https://pokeapi.co/api/v2/pokemon-species/570/"},{"name":"zoroark","url":"https://pokeapi.co/api/v2/pokemon-species/571/"},{"name":"minccino","url":"https://pokeapi.co/api/v2/pokemon-species/572/"},{"name":"cinccino","url":"https://pokeapi.co/api/v2/pokemon-species/573/"},{"name":"gothita","url":"https://pokeapi.co/api/v2/pokemon-species/574/"},{"name":"gothorita","url":"https://pokeapi.co/api/v2/pokemon-species/575/"},{"name":"gothitelle","url":"https://pokeapi.co/api/v2/pokemon-species/576/"},{"name":"solosis","url":"https://pokeapi.co/api/v2/pokemon-species/577/"},{"name":"duosion","url":"https://pokeapi.co/api/v2/pokemon-species/578/"},{"name":"reuniclus","url":"https://pokeapi.co/api/v2/pokemon-species/579/"},{"name":"ducklett","url":"https://pokeapi.co/api/v2/pokemon-species/580/"}]}