{"count":807,"next":"https://pokeapi.co/api/v2/pokemon-species?offset=140&limit=20","previous":"https://pokeapi.co/api/v2/pokemon-species?offset=100&limit=20","results":[{"name":"starmie","url":"https://pokeapi.co/api/v2/pokemon-species/121/"},{"name":"mr-mime","url":"https://pokeapi.co/api/v2/pokemon-species/122/"},{"name":"scyther","url":"https://pokeapi.co/api/v2/pokemon-species/123/"},{"name":"jynx","url":"https://pokeapi.co/api/v2/pokemon-species/124/"},{"name":"electabuzz","url":"https://pokeapi.co/api/v2/pokemon-species/125/"},{"name":"magmar","url":"https://pokeapi.co/api/v2/pokemon-species/126/"},{"name":"pinsir","url":"https://pokeapi.co/api/v2/pokemon-species/127/"},{"name":"tauros","url":"https://pokeapi.co/api/v2/pokemon-species/128/"},{"name":"magikarp","url":"https://pokeapi.co/api/v2/pokemon-species/129/"},{"name":"gyarados","url":"https://pokeapi.co/api/v2/pokemon-species/130/"},{"name":"lapras","url":"https://pokeapi.co/api/v2/pokemon-species/131/"},{"name":"ditto","url":"https://pokeapi.co/api/v2/pokemon-species/132/"},{"name":"eevee","url":"https://pokeapi.co/api/v2/pokemon-species/133/"},{"name":"vaporeon","url":"https://pokeapi.co/api/v2/pokemon-species/134/"},{"name":"jolteon","url":"https://pokeapi.co/api/v2/pokemon-species/135/"},{"name":"flareon","url":"https://pokeapi.co/api/v2/pokemon-species/136/"},{"name":"porygon","url":"https://pokeapi.co/api/v2/pokemon-species/137/"},{"name":"omanyte","url":"https://pokeapi.co/api/v2/pokemon-species/138/"},{"name":"omastar","url":"https://pokeapi.co/api/v2/pokemon-species/139/"},{"name":"kabuto","url":"https://pokeapi.co/api/v2/pokemon-species/140/"}]}