{"count":807,"next":"https://pokeapi.co/api/v2/pokemon-species?offset=260&limit=20","previous":"https://pokeapi.co/api/v2/pokemon-species?offset=220&limit=20","results":[{"name":"miltank","url":"https://pokeapi.co/api/v2/pokemon-species/241/"},{"name":"blissey","url":"https://pokeapi.co/api/v2/pokemon-species/242/"},{"name":"raikou","url":"https://pokeapi.co/api/v2/pokemon-species/243/"},{"name":"entei","url":"https://pokeapi.co/api/v2/pokemon-species/244/"},{"name":"suicune","url":"https://pokeapi.co/api/v2/pokemon-species/245/"},{"name":"larvitar","url":"https://pokeapi.co/api/v2/pokemon-species/246/"},{"name":"pupitar","url":"https://pokeapi.co/api/v2/pokemon-species/247/"},{"name":"tyranitar","url":"https://pokeapi.co/api/v2/pokemon-species/248/"},{"name":"lugia","url":"https://pokeapi.co/api/v2/pokemon-species/249/"},{"name":"ho-oh","url":"https://pokeapi.co/api/v2/pokemon-species/250/"},{"name":"celebi","url":"https://pokeapi.co/api/v2/pokemon-species/251/"},{"name":"treecko","url":"https://pokeapi.co/api/v2/pokemon-species/252/"},{"name":"grovyle","url":"https://pokeapi.co/api/v2/pokemon-species/253/"},{"name":"sceptile","url":"https://pokeapi.co/api/v2/pokemon-species/254/"},{"name":"torchic","url":"https://pokeapi.co/api/v2/pokemon-species/255/"},{"name":"combusken","url":"https://pokeapi.co/api/v2/pokemon-species/256/"},{"name":"blaziken","url":"https://pokeapi.co/api/v2/pokemon-species/257/"},{"name":"mudkip","url":"https://pokeapi.co/api/v2/pokemon-species/258/"},{"name":"marshtomp","url":"https://pokeapi.co/api/v2/pokemon-species/259/"},{"name":"swampert","url":"https://pokeapi.co/api/v2/pokemon-species/260/"}]}