{"count":807,"next":"https://pokeapi.co/api/v2/pokemon-species?offset=480&limit=20","previous":"https://pokeapi.co/api/v2/pokemon-species?offset=440&limit=20","results":[{"name":"weavile","url":"https://pokeapi.co/api/v2/pokemon-species/461/"},{"name":"magnezone","url":"https://pokeapi.co/api/v2/pokemon-species/462/"},{"name":"lickilicky","url":"https://pokeapi.co/api/v2/pokemon-species/463/"},{"name":"rhyperior","url":"https://pokeapi.co/api/v2/pokemon-species/464/"},{"name":"tangrowth","url":"https://pokeapi.co/api/v2/pokemon-species/465/"},{"name":"electivire","url":"https://pokeapi.co/api/v2/pokemon-species/466/"},{"name":"magmortar","url":"https://pokeapi.co/api/v2/pokemon-species/467/"},{"name":"togekiss","url":"https://pokeapi.co/api/v2/pokemon-species/468/"},{"name":"yanmega","url":"https://pokeapi.co/api/v2/pokemon-species/469/"},{"name":"leafeon","url":"https://pokeapi.co/api/v2/pokemon-species/470/"},{"name":"glaceon","url":"https://pokeapi.co/api/v2/pokemon-species/471/"},{"name":"gliscor","url":"https://pokeapi.co/api/v2/pokemon-species/472/"},{"name":"mamoswine","url":"https://pokeapi.co/api/v2/pokemon-species/473/"},{"name":"porygon-z","url":"https://pokeapi.co/api/v2/pokemon-species/474/"},{"name":"gallade","url":"https://pokeapi.co/api/v2/pokemon-species/475/"},{"name":"probopass","url":"https://pokeapi.co/api/v2/pokemon-species/476/"},{"name":"dusknoir","url":"https://pokeapi.co/api/v2/pokemon-species/477/"},{"name":"froslass","url":"https://pokeapi.co/api/v2/pokemon-species/478/"},{"name":"rotom","url":"https://pokeapi.co/api/v2/pokemon-species/479/"},{"name":"uxie","url":"https://pokeapi.co/api/v2/pokemon-species/480/"}]}