{"count":807,"next":"https://pokeapi.co/api/v2/pokemon-species?offset=620&limit=20","previous":"https://pokeapi.co/api/v2/pokemon-species?offset=580&limit=20","results":[{"name":"klinklang","url":"https://pokeapi.co/api/v2/pokemon-species/601/"},{"name":"tynamo","url":"https://pokeapi.co/api/v2/pokemon-species/602/"},{"name":"eelektrik","url":"https://pokeapi.co/api/v2/pokemon-species/603/"},{"name":"eelektross","url":"https://pokeapi.co/api/v2/pokemon-species/604/"},{"name":"elgyem","url":"https://pokeapi.co/api/v2/pokemon-species/605/"},{"name":"beheeyem","url":"https://pokeapi.co/api/v2/pokemon-species/606/"},{"name":"litwick","url":"https://pokeapi.co/api/v2/pokemon-species/607/"},{"name":"lampent","url":"https://pokeapi.co/api/v2/pokemon-species/608/"},{"name":"chandelure","url":"https://pokeapi.co/api/v2/pokemon-species/609/"},{"name":"axew","url":"https://pokeapi.co/api/v2/pokemon-species/610/"},{"name":"fraxure","url":"https://pokeapi.co/api/v2/pokemon-species/611/"},{"name":"haxorus","url":"https://pokeapi.co/api/v2/pokemon-species/612/"},{"name":"cubchoo","url":"https://pokeapi.co/api/v2/pokemon-species/613/"},{"name":"beartic","url":"https://pokeapi.co/api/v2/pokemon-species/614/"},{"name":"cryogonal","url":"https://pokeapi.co/api/v2/pokemon-species/615/"},{"name":"shelmet","url":"https://pokeapi.co/api/v2/pokemon-species/616/"},{"name":"accelgor","url":"https://pokeapi.co/api/v2/pokemon-species/617/"},{"name":"stunfisk","url":"https://pokeapi.co/api/v2/pokemon-species/618/"},{"name":"mienfoo","url":"https://pokeapi.co/api/v2/pokemon-species/619/"},{"name":"mienshao","url":"https://pokeapi.co/api/v2/pokemon-species/620/"}]}