{"count":807,"next":"https://pokeapi.co/api/v2/pokemon-species?offset=200&limit=20","previous":"https://pokeapi.co/api/v2/pokemon-species?offset=160&limit=20","results":[{"name":"ampharos","url":"https://pokeapi.co/api/v2/pokemon-species/181/"},{"name":"bellossom","url":"https://pokeapi.co/api/v2/pokemon-species/182/"},{"name":"marill","url":"https://pokeapi.co/api/v2/pokemon-species/183/"},{"name":"azumarill","url":"https://pokeapi.co/api/v2/pokemon-species/184/"},{"name":"sudowoodo","url":"https://pokeapi.co/api/v2/pokemon-species/185/"},{"name":"politoed","url":"https://pokeapi.co/api/v2/pokemon-species/186/"},{"name":"hoppip","url":"https://pokeapi.co/api/v2/pokemon-species/187/"},{"name":"skiploom","url":"https://pokeapi.co/api/v2/pokemon-species/188/"},{"name":"jumpluff","url":"https://pokeapi.co/api/v2/pokemon-species/189/"},{"name":"aipom","url":"https://pokeapi.co/api/v2/pokemon-species/190/"},{"name":"sunkern","url":"https://pokeapi.co/api/v2/pokemon-species/191/"},{"name":"sunflora","url":"https://pokeapi.co/api/v2/pokemon-species/192/"},{"name":"yanma","url":"https://pokeapi.co/api/v2/pokemon-species/193/"},{"name":"wooper","url":"https://pokeapi.co/api/v2/pokemon-species/194/"},{"name":"quagsire","url":"https://pokeapi.co/api/v2/pokemon-species/195/"},{"name":"espeon","url":"https://pokeapi.co/api/v2/pokemon-species/196/"},{"name":"umbreon","url":"https://pokeapi.co/api/v2/pokemon-species/197/"},{"name":"murkrow","url":"https://pokeapi.co/api/v2/pokemon-species/198/"},{"name":"slowking","url":"https://pokeapi.co/api/v2/pokemon-species/199/"},{"name":"misdreavus","url":"https://pokeapi.co/api/v2/pokemon-species/200/"}]}