{"count":807,"next":"https://pokeapi.co/api/v2/pokemon-species?offset=380&limit=20","previous":"https://pokeapi.co/api/v2/pokemon-species?offset=340&limit=20","results":[{"name":"snorunt","url":"https://pokeapi.co/api/v2/pokemon-species/361/"},{"name":"glalie","url":"https://pokeapi.co/api/v2/pokemon-species/362/"},{"name":"spheal","url":"https://pokeapi.co/api/v2/pokemon-species/363/"},{"name":"sealeo","url":"https://pokeapi.co/api/v2/pokemon-species/364/"},{"name":"walrein","url":"https://pokeapi.co/api/v2/pokemon-species/365/"},{"name":"clamperl","url":"https://pokeapi.co/api/v2/pokemon-species/366/"},{"name":"huntail","url":"https://pokeapi.co/api/v2/pokemon-species/367/"},{"name":"gorebyss","url":"https://pokeapi.co/api/v2/pokemon-species/368/"},{"name":"relicanth","url":"https://pokeapi.co/api/v2/pokemon-species/369/"},{"name":"luvdisc","url":"https://pokeapi.co/api/v2/pokemon-species/370/"},{"name":"bagon","url":"https://pokeapi.co/api/v2/pokemon-species/371/"},{"name":"shelgon","url":"https://pokeapi.co/api/v2/pokemon-species/372/"},{"name":"salamence","url":"https://pokeapi.co/api/v2/pokemon-species/373/"},{"name":"beldum","url":"https://pokeapi.co/api/v2/pokemon-species/374/"},{"name":"metang","url":"https://pokeapi.co/api/v2/pokemon-species/375/"},{"name":"metagross","url":"https://pokeapi.co/api/v2/pokemon-species/376/"},{"name":"regirock","url":"https://pokeapi.co/api/v2/pokemon-species/377/"},{"name":"regice","url":"https://pokeapi.co/api/v2/pokemon-species/378/"},{"name":"registeel","url":"https://pokeapi.co/api/v2/pokemon-species/379/"},{"name":"latias","url":"https://pokeapi.co/api/v2/pokemon-species/380/"}]}