{"count":807,"next":"https://pokeapi.co/api/v2/pokemon-species?offset=40&limit=20","previous":"https://pokeapi.co/api/v2/pokemon-species?offset=0&limit=20","results":[{"name":"spearow","url":"https://pokeapi.co/api/v2/pokemon-species/21/"},{"name":"fearow","url":"https://pokeapi.co/api/v2/pokemon-species/22/"},{"name":"ekans","url":"https://pokeapi.co/api/v2/pokemon-species/23/"},{"name":"arbok","url":"https://pokeapi.co/api/v2/pokemon-species/24/"},{"name":"pikachu","url":"https://pokeapi.co/api/v2/pokemon-species/25/"},{"name":"raichu","url":"https://pokeapi.co/api/v2/pokemon-species/26/"},{"name":"sandshrew","url":"https://pokeapi.co/api/v2/pokemon-species/27/"},{"name":"sandslash","url":"https://pokeapi.co/api/v2/pokemon-species/28/"},{"name":"nidoran-f","url":"https://pokeapi.co/api/v2/pokemon-species/29/"},{"name":"nidorina","url":"https://pokeapi.co/api/v2/pokemon-species/30/"},{"name":"nidoqueen","url":"https://pokeapi.co/api/v2/pokemon-species/31/"},{"name":"nidoran-m","url":"https://pokeapi.co/api/v2/pokemon-species/32/"},{"name":"nidorino","url":"https://pokeapi.co/api/v2/pokemon-species/33/"},{"name":"nidoking","url":"https://pokeapi.co/api/v2/pokemon-species/34/"},{"name":"clefairy","url":"https://pokeapi.co/api/v2/pokemon-species/35/"},{"name":"clefable","url":"https://pokeapi.co/api/v2/pokemon-species/36/"},{"name":"vulpix","url":"https://pokeapi.co/api/v2/pokemon-species/37/"},{"name":"ninetales","url":"https://pokeapi.co/api/v2/pokemon-species/38/"},{"name":"jigglypuff","url":"https://pokeapi.co/api/v2/pokemon-species/39/"},{"name":"wigglytuff","url":"https://pokeapi.co/api/v2/pokemon-species/40/"}]}