{"count":807,"next":"https://pokeapi.co/api/v2/pokemon-species?offset=680&limit=20","previous":"https://pokeapi.co/api/v2/pokemon-species?offset=640&limit=20","results":[{"name":"fletchling","url":"https://pokeapi.co/api/v2/pokemon-species/661/"},{"name":"fletchinder","url":"https://pokeapi.co/api/v2/pokemon-species/662/"},{"name":"talonflame","url":"https://pokeapi.co/api/v2/pokemon-species/663/"},{"name":"scatterbug","url":"https://pokeapi.co/api/v2/pokemon-species/664/"},{"name":"spewpa","url":"https://pokeapi.co/api/v2/pokemon-species/665/"},{"name":"vivillon","url":"https://pokeapi.co/api/v2/pokemon-species/666/"},{"name":"litleo","url":"https://pokeapi.co/api/v2/pokemon-species/667/"},{"name":"pyroar","url":"https://pokeapi.co/api/v2/pokemon-species/668/"},{"name":"flabebe","url":"https://pokeapi.co/api/v2/pokemon-species/669/"},{"name":"floette","url":"https://pokeapi.co/api/v2/pokemon-species/670/"},{"name":"florges","url":"https://pokeapi.co/api/v2/pokemon-species/671/"},{"name":"skiddo","url":"https://pokeapi.co/api/v2/pokemon-species/672/"},{"name":"gogoat","url":"https://pokeapi.co/api/v2/pokemon-species/673/"},{"name":"pancham","url":"https://pokeapi.co/api/v2/pokemon-species/674/"},{"name":"pangoro","url":"https://pokeapi.co/api/v2/pokemon-species/675/"},{"name":"furfrou","url":"https://pokeapi.co/api/v2/pokemon-species/676/"},{"name":"espurr","url":"https://pokeapi.co/api/v2/pokemon-species/677/"},{"name":"meowstic","url":"https://pokeapi.co/api/v2/pokemon-species/678/"},{"name":"honedge","url":"https://pokeapi.co/api/v2/pokemon-species/679/"},{"name":"doublade","url":"https://pokeapi.co/api/v2/pokemon-species/680/"}]}