{"count":807,"next":"https://pokeapi.co/api/v2/pokemon-species?offset=240&limit=20","previous":"https://pokeapi.co/api/v2/pokemon-species?offset=200&limit=20","results":[{"name":"piloswine","url":"https://pokeapi.co/api/v2/pokemon-species/221/"},{"name":"corsola","url":"https://pokeapi.co/api/v2/pokemon-species/222/"},{"name":"remoraid","url":"https://pokeapi.co/api/v2/pokemon-species/223/"},{"name":"octillery","url":"https://pokeapi.co/api/v2/pokemon-species/224/"},{"name":"delibird","url":"https://pokeapi.co/api/v2/pokemon-species/225/"},{"name":"mantine","url":"https://pokeapi.co/api/v2/pokemon-species/226/"},{"name":"skarmory","url":"https://pokeapi.co/api/v2/pokemon-species/227/"},{"name":"houndour","url":"https://pokeapi.co/api/v2/pokemon-species/228/"},{"name":"houndoom","url":"https://pokeapi.co/api/v2/pokemon-species/229/"},{"name":"kingdra","url":"https://pokeapi.co/api/v2/pokemon-species/230/"},{"name":"phanpy","url":"https://pokeapi.co/api/v2/pokemon-species/231/"},{"name":"donphan","url":"https://pokeapi.co/api/v2/pokemon-species/232/"},{"name":"porygon2","url":"https://pokeapi.co/api/v2/pokemon-species/233/"},{"name":"stantler","url":"https://pokeapi.co/api/v2/pokemon-species/234/"},{"name":"smeargle","url":"https://pokeapi.co/api/v2/pokemon-species/235/"},{"name":"tyrogue","url":"https://pokeapi.co/api/v2/pokemon-species/236/"},{"name":"hitmontop","url":"https://pokeapi.co/api/v2/pokemon-species/237/"},{"name":"smoochum","url":"https://pokeapi.co/api/v2/pokemon-species/238/"},{"name":"elekid","url":"https://pokeapi.co/api/v2/pokemon-species/239/"},{"name":"magby","url":"https://pokeapi.co/api/v2/pokemon-species/240/"}]}