{"count":807,"next":"https://pokeapi.co/api/v2/pokemon-species?offset=500&limit=20","previous":"https://pokeapi.co/api/v2/pokemon-species?offset=460&limit=20","results":[{"name":"mesprit","url":"https://pokeapi.co/api/v2/pokemon-species/481/"},{"name":"azelf","url":"https://pokeapi.co/api/v2/pokemon-species/482/"},{"name":"dialga","url":"https://pokeapi.co/api/v2/pokemon-species/483/"},{"name":"palkia","url":"https://pokeapi.co/api/v2/pokemon-species/484/"},{"name":"heatran","url":"https://pokeapi.co/api/v2/pokemon-species/485/"},{"name":"regigigas","url":"https://pokeapi.co/api/v2/pokemon-species/486/"},{"name":"giratina","url":"https://pokeapi.co/api/v2/pokemon-species/487/"},{"name":"cresselia","url":"https://pokeapi.co/api/v2/pokemon-species/488/"},{"name":"phione","url":"https://pokeapi.co/api/v2/pokemon-species/489/"},{"name":"manaphy","url":"https://pokeapi.co/api/v2/pokemon-species/490/"},{"name":"darkrai","url":"https://pokeapi.co/api/v2/pokemon-species/491/"},{"name":"shaymin","url":"https://pokeapi.co/api/v2/pokemon-species/492/"},{"name":"arceus","url":"https://pokeapi.co/api/v2/pokemon-species/493/"},{"name":"victini","url":"https://pokeapi.co/api/v2/pokemon-species/494/"},{"name":"snivy","url":"https://pokeapi.co/api/v2/pokemon-species/495/"},{"name":"servine","url":"https://pokeapi.co/api/v2/pokemon-species/496/"},{"name":"serperior","url":"https://pokeapi.co/api/v2/pokemon-species/497/"},{"name":"tepig","url":"https://pokeapi.co/api/v2/pokemon-species/498/"},{"name":"pignite","url":"https://pokeapi.co/api/v2/pokemon-species/499/"},{"name":"emboar","url":"https://pokeapi.co/api/v2/pokemon-species/500/"}]}