{"count":807,"next":"https://pokeapi.co/api/v2/pokemon-species?offset=460&limit=20","previous":"https://pokeapi.co/api/v2/pokemon-species?offset=420&limit=20","results":[{"name":"chatot","url":"https://pokeapi.co/api/v2/pokemon-species/441/"},{"name":"spiritomb","url":"https://pokeapi.co/api/v2/pokemon-species/442/"},{"name":"gible","url":"https://pokeapi.co/api/v2/pokemon-species/443/"},{"name":"gabite","url":"https://pokeapi.co/api/v2/pokemon-species/444/"},{"name":"garchomp","url":"https://pokeapi.co/api/v2/pokemon-species/445/"},{"name":"munchlax","url":"https://pokeapi.co/api/v2/pokemon-species/446/"},{"name":"riolu","url":"https://pokeapi.co/api/v2/pokemon-species/447/"},{"name":"lucario","url":"https://pokeapi.co/api/v2/pokemon-species/448/"},{"name":"hippopotas","url":"https://pokeapi.co/api/v2/pokemon-species/449/"},{"name":"hippowdon","url":"https://pokeapi.co/api/v2/pokemon-species/450/"},{"name":"skorupi","url":"https://pokeapi.co/api/v2/pokemon-species/451/"},{"name":"drapion","url":"https://pokeapi.co/api/v2/pokemon-species/452/"},{"name":"croagunk","url":"https://pokeapi.co/api/v2/pokemon-species/453/"},{"name":"toxicroak","url":"https://pokeapi.co/api/v2/pokemon-species/454/"},{"name":"carnivine","url":"https://pokeapi.co/api/v2/pokemon-species/455/"},{"name":"finneon","url":"https://pokeapi.co/api/v2/pokemon-species/456/"},{"name":"lumineon","url":"https://pokeapi.co/api/v2/pokemon-species/457/"},{"name":"mantyke","url":"https://pokeapi.co/api/v2/pokemon-species/458/"},{"name":"snover","url":"https://pokeapi.co/api/v2/pokemon-species/459/"},{"name":"abomasnow","url":"https://pokeapi.co/api/v2/pokemon-species/460/"}]}