{"count":807,"next":"https://pokeapi.co/api/v2/pokemon-species?offset=700&limit=20","previous":"https://pokeapi.co/api/v2/pokemon-species?offset=660&limit=20","results":[{"name":"aegislash","url":"https://pokeapi.co/api/v2/pokemon-species/681/"},{"name":"spritzee","url":"https://pokeapi.co/api/v2/pokemon-species/682/"},{"name":"aromatisse","url":"https://pokeapi.co/api/v2/pokemon-species/683/"},{"name":"swirlix","url":"https://pokeapi.co/api/v2/pokemon-species/684/"},{"name":"slurpuff","url":"https://pokeapi.co/api/v2/pokemon-species/685/"},{"name":"inkay","url":"https://pokeapi.co/api/v2/pokemon-species/686/"},{"name":"malamar","url":"https://pokeapi.co/api/v2/pokemon-species/687/"},{"name":"binacle","url":"https://pokeapi.co/api/v2/pokemon-species/688/"},{"name":"barbaracle","url":"https://pokeapi.co/api/v2/pokemon-species/689/"},{"name":"skrelp","url":"https://pokeapi.co/api/v2/pokemon-species/690/"},{"name":"dragalge","url":"https://pokeapi.co/api/v2/pokemon-species/691/"},{"name":"clauncher","url":"https://pokeapi.co/api/v2/pokemon-species/692/"},{"name":"clawitzer","url":"https://pokeapi.co/api/v2/pokemon-species/693/"},{"name":"helioptile","url":"https://pokeapi.co/api/v2/pokemon-species/694/"},{"name":"heliolisk","url":"https://pokeapi.co/api/v2/pokemon-species/695/"},{"name":"tyrunt","url":"https://pokeapi.co/api/v2/pokemon-species/696/"},{"name":"tyrantrum","url":"https://pokeapi.co/api/v2/pokemon-species/697/"},{"name":"amaura","url":"https://pokeapi.co/api/v2/pokemon-species/698/"},{"name":"aurorus","url":"https://pokeapi.co/api/v2/pokemon-species/699/"},{"name":"sylveon","url":"https://pokeapi.co/api/v2/pokemon-species/700/"}]}