{"count":807,"next":"https://pokeapi.co/api/v2/pokemon-species?offset=420&limit=20","previous":"https://pokeapi.co/api/v2/pokemon-species?offset=380&limit=20","results":[{"name":"kricketot","url":"https://pokeapi.co/api/v2/pokemon-species/401/"},{"name":"kricketune","url":"https://pokeapi.co/api/v2/pokemon-species/402/"},{"name":"shinx","url":"https://pokeapi.co/api/v2/pokemon-species/403/"},{"name":"luxio","url":"https://pokeapi.co/api/v2/pokemon-species/404/"},{"name":"luxray","url":"https://pokeapi.co/api/v2/pokemon-species/405/"},{"name":"budew","url":"https://pokeapi.co/api/v2/pokemon-species/406/"},{"name":"roserade","url":"https://pokeapi.co/api/v2/pokemon-species/407/"},{"name":"cranidos","url":"https://pokeapi.co/api/v2/pokemon-species/408/"},{"name":"rampardos","url":"https://pokeapi.co/api/v2/pokemon-species/409/"},{"name":"shieldon","url":"https://pokeapi.co/api/v2/pokemon-species/410/"},{"name":"bastiodon","url":"https://pokeapi.co/api/v2/pokemon-species/411/"},{"name":"burmy","url":"https://pokeapi.co/api/v2/pokemon-species/412/"},{"name":"wormadam","url":"https://pokeapi.co/api/v2/pokemon-species/413/"},{"name":"mothim","url":"https://pokeapi.co/api/v2/pokemon-species/414/"},{"name":"combee","url":"https://pokeapi.co/api/v2/pokemon-species/415/"},{"name":"vespiquen","url":"https://pokeapi.co/api/v2/pokemon-species/416/"},{"name":"pachirisu","url":"https://pokeapi.co/api/v2/pokemon-species/417/"},{"name":"buizel","url":"https://pokeapi.co/api/v2/pokemon-species/418/"},{"name":"floatzel","url":"https://pokeapi.co/api/v2/pokemon-species/419/"},{"name":"cherubi","url":"https://pokeapi.co/api/v2/pokemon-species/420/"}]}