{"count":807,"next":"https://pokeapi.co/api/v2/pokemon-species?offset=720&limit=20","previous":"https://pokeapi.co/api/v2/pokemon-species?offset=680&limit=20","results":[{"name":"hawlucha","url":"https://pokeapi.co/api/v2/pokemon-species/701/"},{"name":"dedenne","url":"https://pokeapi.co/api/v2/pokemon-species/702/"},{"name":"carbink","url":"https://pokeapi.co/api/v2/pokemon-species/703/"},{"name":"goomy","url":"https://pokeapi.co/api/v2/pokemon-species/704/"},{"name":"sliggoo","url":"https://pokeapi.co/api/v2/pokemon-species/705/"},{"name":"goodra","url":"https://pokeapi.co/api/v2/pokemon-species/706/"},{"name":"klefki","url":"https://pokeapi.co/api/v2/pokemon-species/707/"},{"name":"phantump","url":"https://pokeapi.co/api/v2/pokemon-species/708/"},{"name":"trevenant","url":"https://pokeapi.co/api/v2/pokemon-species/709/"},{"name":"pumpkaboo","url":"https://pokeapi.co/api/v2/pokemon-species/710/"},{"name":"gourgeist","url":"https://pokeapi.co/api/v2/pokemon-species/711/"},{"name":"bergmite","url":"https://pokeapi.co/api/v2/pokemon-species/712/"},{"name":"avalugg","url":"https://pokeapi.co/api/v2/pokemon-species/713/"},{"name":"noibat","url":"https://pokeapi.co/api/v2/pokemon-species/714/"},{"name":"noivern","url":"https://pokeapi.co/api/v2/pokemon-species/715/"},{"name":"xerneas","url":"https://pokeapi.co/api/v2/pokemon-species/716/"},{"name":"yveltal","url":"https://pokeapi.co/api/v2/pokemon-species/717/"},{"name":"zygarde","url":"https://pokeapi.co/api/v2/pokemon-species/718/"},{"name":"diancie","url":"https://pokeapi.co/api/v2/pokemon-species/719/"},{"name":"hoopa","url":"https://pokeapi.co/api/v2/pokemon-species/720/"}]}