{"count":807,"next":"https://pokeapi.co/api/v2/pokemon-species?offset=520&limit=20","previous":"https://pokeapi.co/api/v2/pokemon-species?offset=480&limit=20","results":[{"name":"oshawott","url":"https://pokeapi.co/api/v2/pokemon-species/501/"},{"name":"dewott","url":"https://pokeapi.co/api/v2/pokemon-species/502/"},{"name":"samurott","url":"https://pokeapi.co/api/v2/pokemon-species/503/"},{"name":"patrat","url":"https://pokeapi.co/api/v2/pokemon-species/504/"},{"name":"watchog","url":"https://pokeapi.co/api/v2/pokemon-species/505/"},{"name":"lillipup","url":"https://pokeapi.co/api/v2/pokemon-species/506/"},{"name":"herdier","url":"https://pokeapi.co/api/v2/pokemon-species/507/"},{"name":"stoutland","url":"https://pokeapi.co/api/v2/pokemon-species/508/"},{"name":"purrloin","url":"https://pokeapi.co/api/v2/pokemon-species/509/"},{"name":"liepard","url":"https://pokeapi.co/api/v2/pokemon-species/510/"},{"name":"pansage","url":"https://pokeapi.co/api/v2/pokemon-species/511/"},{"name":"simisage","url":"https://pokeapi.co/api/v2/pokemon-species/512/"},{"name":"pansear","url":"https://pokeapi.co/api/v2/pokemon-species/513/"},{"name":"simisear","url":"https://pokeapi.co/api/v2/pokemon-species/514/"},{"name":"panpour","url":"https://pokeapi.co/api/v2/pokemon-species/515/"},{"name":"simipour","url":"https://pokeapi.co/api/v2/pokemon-species/516/"},{"name":"munna","url":"https://pokeapi.co/api/v2/pokemon-species/517/"},{"name":"musharna","url":"https://pokeapi.co/api/v2/pokemon-species/518/"},{"name":"pidove","url":"https://pokeapi.co/api/v2/pokemon-species/519/"},{"name":"tranquill","url":"https://pokeapi.co/api/v2/pokemon-species/520/"}]}